%YAML 1.1
%TAG !u! tag:unity3d.com,2011:
--- !u!114 &11400000
MonoBehaviour:
  m_ObjectHideFlags: 0
  m_CorrespondingSourceObject: {fileID: 0}
  m_PrefabInstance: {fileID: 0}
  m_PrefabAsset: {fileID: 0}
  m_GameObject: {fileID: 0}
  m_Enabled: 1
  m_EditorHideFlags: 0
  m_Script: {fileID: 11500000, guid: 0c6370ece009a38468eef2cc09de21ee, type: 3}
  m_Name: DataT32
  m_EditorClassIdentifier: 
  fireSpeed: 10
  type: 0
  towerMenuPrefab: {fileID: 7199263287621157581, guid: a8bb9466c30683246b129e2d48e42b3f,
    type: 3}
  _nextLevelTowersAndPrices: []
  _basePrefab:
  - _NextLevelTowerPrefab: {fileID: 2608401852920658524, guid: 382afbf0a0590964990e23a9c5de2d93,
      type: 3}
    _NextLeveltowrPrice: 0
